{
  "code": 200,
  "message": "请求成功",
  "results": {
    "list": [
      {
        "name": "全一集",
        "datetime_created": "2024-04-24 16:18:53",
        "post": {
          "uuid": "73",
          "name": "【越南coser】Nana Berry-玉藻前",
          "mannequins": [
            {
              "name": "Nana Berry",
              "path_word": "Nana Berry"
            }
          ],
          "cover": "https://s3.mangafunb.fun/post/image/cover/1713946718.jpg.328x422.jpg",
          "popular": 121,
          "ticket": "5",
          "datetime_updated": "2024-04-24"
        }
      }
    ],
    "total": 14,
    "limit": 20,
    "offset": 0
  }
}