{
  "code": 200,
  "message": "请求成功",
  "results": {
    "total": 706,
    "list": [
      {
        "path_word": "kaononaitsuki",
        "name": "顔のない月（無顏之月）",
        "cover": "b7347ad6-14a2-11e9-89bf-024352452ce0.jpg!m_item",
        "count": 5,
        "years": "2001-12-28",
        "females": [],
        "males": [],
        "theme": [],
        "datetime_updated": "2019-01-10",
        "b_subtitle": true,
        "popular": 4882
      }
    ],
    "limit": 1,
    "offset": 0
  }
}
