{
  "code": 200,
  "message": "请求成功",
  "results": {
    "cartoon_type": [{ "name": "2D", "path_word": "1" }],
    "company": [
      {
        "name": "ピンクパイナップル（粉菠蘿社）",
        "count": 227,
        "path_word": "pinkpineapple"
      }
    ],
    "year": [{ "path_word": 2020, "name": 2020, "count": 189 }],
    "female": [
      {
        "initials": 13,
        "name": "中出(女)",
        "gender": 2,
        "path_word": "female_nakadashi",
        "count": 2034
      }
    ],
    "male": [
      {
        "initials": 18,
        "name": "男學生制服(男)",
        "gender": 1,
        "path_word": "male_schoolboy_uniform",
        "count": 355
      }
    ],
    "ordering": { "datetime_updated": "更新時間", "popular": "熱度" }
  }
}
