{
  "code": 200,
  "message": "请求成功",
  "results": {
    "list": [
      {
        "type": 5,
        "comic": {
          "path_word": "playhomejiazubenghuaimodhejier",
          "name": "Play Home 家族崩壞 MOD合集二(斗羅、斗破、天行九歌、超神學院等)",
          "cover": "2c5c6763-f95f-11e9-9844-024352452ce0.jpg!m_item",
          "theme": [],
          "females": [],
          "males": [],
          "company": { "name": "多人", "path_word": "duoren" },
          "years": "2019-01-01",
          "popular": 600910
        }
      }
    ],
    "total": 265,
    "limit": 1,
    "offset": 0
  }
}
